{
    "Main Function" : {
        "prefix" : "main",
        "body"   : [
            "def main():",
            "\t#TODO: write implementation",
            "\tpass",
            "if __name__ == \"__main__\":",
            "\tmain()"
        ],
        "description" : "A main function in a standalone script"
    }
}